<?xml version="1.0" encoding="utf-8"?>
<!-- Generator: Adobe Illustrator 24.1.2, SVG Export Plug-In . SVG Version: 6.00 Build 0)  -->
<svg version="1.1" id="Layer_1" xmlns="http://www.w3.org/2000/svg" xmlns:xlink="http://www.w3.org/1999/xlink" x="0px" y="0px"
	 viewBox="0 0 1000 1000" style="enable-background:new 0 0 1000 1000;" xml:space="preserve">
<style type="text/css">
	.st0{fill:#FF4500;}
	.st1{fill:#FFFFFF;}
</style>
<g id="Artwork">
	<g>
		<circle class="st0" cx="500" cy="500" r="500"/>
		<path class="st1" d="M833.3,500c0-40.4-32.7-73.1-73.1-73.1c-19.9,0-37.4,7.6-50.3,20.5c-49.7-35.7-118.7-59.1-194.7-62
			l33.3-156.1L656.7,252c1.2,27.5,24,49.7,52,49.7c28.7,0,52-23.4,52-52c0-28.7-23.4-52-52-52c-20.5,0-38,11.7-46.2,29.2
			l-121.1-25.7c-3.5-0.6-7,0-9.9,1.8c-2.9,1.8-4.7,4.7-5.8,8.2l-36.8,174.3c-77.8,2.3-147.4,25.1-197.7,62
			c-12.9-12.3-31-20.5-50.3-20.5c-40.4,0-73.1,32.7-73.1,73.1c0,29.8,17.5,55,43.3,66.7c-1.2,7-1.8,14.6-1.8,22.2
			c0,112.3,130.4,202.9,291.8,202.9S793,701.2,793,588.9c0-7.6-0.6-14.6-1.8-21.6C815.2,555.6,833.3,529.8,833.3,500z M333.3,552
			c0-28.7,23.4-52,52-52c28.7,0,52,23.4,52,52c0,28.7-23.4,52-52,52C356.7,604.1,333.3,580.7,333.3,552z M624,689.5
			c-35.7,35.7-103.5,38-123.4,38c-19.9,0-88.3-2.9-123.4-38c-5.3-5.3-5.3-14,0-19.3c5.3-5.3,14-5.3,19.3,0
			c22.2,22.2,70.2,30.4,104.7,30.4s81.9-8.2,104.7-30.4c5.3-5.3,14-5.3,19.3,0C629.2,676,629.2,684.2,624,689.5z M614.6,604.1
			c-28.7,0-52-23.4-52-52c0-28.7,23.4-52,52-52c28.7,0,52,23.4,52,52C666.7,580.7,643.3,604.1,614.6,604.1z"/>
	</g>
</g>
</svg>
