<?xml version="1.0" encoding="UTF-8"?>
<svg id="Layer_1" data-name="Layer 1" xmlns="http://www.w3.org/2000/svg" xmlns:xlink="http://www.w3.org/1999/xlink" viewBox="0 0 1000 1000">
  <defs>
    <style>
      .cls-1 {
        fill: #fff;
      }

      .cls-2 {
        fill: #c8daea;
      }

      .cls-3 {
        fill: #a9c6d8;
      }

      .cls-4 {
        fill: url(#linear-gradient);
      }
    </style>
    <linearGradient id="linear-gradient" x1="500" y1="2" x2="500" y2="1002" gradientTransform="translate(0 1002) scale(1 -1)" gradientUnits="userSpaceOnUse">
      <stop offset="0" stop-color="#1d93d2"/>
      <stop offset="1" stop-color="#38b0e3"/>
    </linearGradient>
  </defs>
  <circle class="cls-4" cx="500" cy="500" r="500"/>
  <path class="cls-2" d="M338.45,536.55l59.32,164.19s7.42,15.36,15.36,15.36,126.06-122.88,126.06-122.88l131.35-253.71-329.98,154.65-2.12,42.38Z"/>
  <path class="cls-3" d="M417.11,578.66l-11.39,121.03s-4.77,37.08,32.31,0c37.07-37.08,72.56-65.68,72.56-65.68"/>
  <path class="cls-1" d="M339.53,542.41l-122.02-39.76s-14.58-5.92-9.89-19.33c.97-2.77,2.92-5.12,8.75-9.17,27.04-18.85,500.44-189,500.44-189,0,0,13.37-4.5,21.25-1.51,3.97,1.23,6.97,4.5,7.85,8.56,.85,3.52,1.21,7.15,1.06,10.77-.04,3.13-.42,6.04-.7,10.59-2.88,46.52-89.17,393.72-89.17,393.72,0,0-5.16,20.32-23.66,21.01-9.18,.3-18.09-3.15-24.69-9.55-36.3-31.22-161.75-115.53-189.47-134.07-1.27-.86-2.09-2.23-2.27-3.75-.39-1.95,1.74-4.38,1.74-4.38,0,0,218.44-194.17,224.25-214.55,.45-1.58-1.25-2.36-3.53-1.67-14.51,5.34-266.02,164.17-293.77,181.7-2,.6-4.11,.73-6.17,.37Z"/>
</svg>